^C:\USERS\משתמש\ONEDRIVE\DESKTOP\DOLEV-MAGSHIMIM\YEAR 2\C++\סמסטר א\שיעור 2\CLASS-2\CELL-PROJECT\CELL-PROJECT\DEBUG\AMINOACID.OBJ|C:\USERS\משתמש\ONEDRIVE\DESKTOP\DOLEV-MAGSHIMIM\YEAR 2\C++\סמסטר א\שיעור 2\CLASS-2\CELL-PROJECT\CELL-PROJECT\DEBUG\CELL.OBJ|C:\USERS\משתמש\ONEDRIVE\DESKTOP\DOLEV-MAGSHIMIM\YEAR 2\C++\סמסטר א\שיעור 2\CLASS-2\CELL-PROJECT\CELL-PROJECT\DEBUG\MAIN.OBJ|C:\USERS\משתמש\ONEDRIVE\DESKTOP\DOLEV-MAGSHIMIM\YEAR 2\C++\סמסטר א\שיעור 2\CLASS-2\CELL-PROJECT\CELL-PROJECT\DEBUG\MITOCHONDRION.OBJ|C:\USERS\משתמש\ONEDRIVE\DESKTOP\DOLEV-MAGSHIMIM\YEAR 2\C++\סמסטר א\שיעור 2\CLASS-2\CELL-PROJECT\CELL-PROJECT\DEBUG\NUCLEUS.OBJ|C:\USERS\משתמש\ONEDRIVE\DESKTOP\DOLEV-MAGSHIMIM\YEAR 2\C++\סמסטר א\שיעור 2\CLASS-2\CELL-PROJECT\CELL-PROJECT\DEBUG\PROTEIN.OBJ|C:\USERS\משתמש\ONEDRIVE\DESKTOP\DOLEV-MAGSHIMIM\YEAR 2\C++\סמסטר א\שיעור 2\CLASS-2\CELL-PROJECT\CELL-PROJECT\DEBUG\RIBOSOME.OBJ
C:\USERS\משתמש\ONEDRIVE\DESKTOP\DOLEV-MAGSHIMIM\YEAR 2\C++\סמסטר א\שיעור 2\CLASS-2\CELL-PROJECT\DEBUG\CELL-PROJECT.EXE
C:\USERS\משתמש\ONEDRIVE\DESKTOP\DOLEV-MAGSHIMIM\YEAR 2\C++\סמסטר א\שיעור 2\CLASS-2\CELL-PROJECT\DEBUG\CELL-PROJECT.ILK
C:\USERS\משתמש\ONEDRIVE\DESKTOP\DOLEV-MAGSHIMIM\YEAR 2\C++\סמסטר א\שיעור 2\CLASS-2\CELL-PROJECT\DEBUG\CELL-PROJECT.PDB
